<svg xmlns="http://www.w3.org/2000/svg" width="7.094" height="12.875" viewBox="0 0 7.094 12.875">
  <defs>
    <style>
      .cls-1 {
        fill: none;
        stroke-linecap: round;
        stroke-width: 2px;
        fill-rule: evenodd;
      }
    </style>
  </defs>
  <path class="cls-1" d="M260.52,327.426L265.279,322l-4.759-5.426" transform="translate(-259.5 -315.563)"/>
</svg>
