<svg id="rost-Icon" xmlns="http://www.w3.org/2000/svg" width="28" height="28" viewBox="0 0 28 28">
  <circle id="Эллипс_698" data-name="Эллипс 698" fill="#f59282" cx="14" cy="14" r="14"/>
  <path id="Фигура_698" data-name="Фигура 698" fill="#fff" fill-rule="evenodd" d="M1001.25,1086h1.43a4.189,4.189,0,0,0,4.26-4.11v-3.44a11.344,11.344,0,0,0-2.26-6.81l-0.33-.44a2.977,2.977,0,0,0-4.777,0l-0.329.44a11.364,11.364,0,0,0-2.26,6.81v3.44A4.19,4.19,0,0,0,1001.25,1086Zm0-2a2.2,2.2,0,0,1-2.274-2.11v-3.44a9.373,9.373,0,0,1,1.864-5.61l0.33-.44a0.98,0.98,0,0,1,.79-0.4,1,1,0,0,1,.8.4l0.33,0.44a9.376,9.376,0,0,1,1.86,5.61v3.44a2.2,2.2,0,0,1-2.27,2.11h-1.43Zm0.79-4a6.416,6.416,0,0,0-4.618,1.85,1,1,0,0,0-.26.92,4.233,4.233,0,0,0,4.158,3.23h1.43a4.239,4.239,0,0,0,4.17-3.23,1.032,1.032,0,0,0-.26-0.92A6.446,6.446,0,0,0,1002.04,1080Zm0.71,4h-1.43a2.306,2.306,0,0,1-2.016-1.15,4.835,4.835,0,0,1,5.476,0A2.32,2.32,0,0,1,1002.75,1084Z" transform="translate(-988 -1064)"/>
</svg>
