<svg xmlns="http://www.w3.org/2000/svg" width="16" height="16" viewBox="0 0 16 16">
  <defs>
    <style>
      .cls-1 {
        fill-rule: evenodd;
      }
    </style>
  </defs>
  <path id="Shape_79_copy_5" data-name="Shape 79 copy 5" class="cls-1" d="M111,392a8,8,0,1,1-8,8A8,8,0,0,1,111,392Zm0,11.007,1.624-2.81,0.674,1.9h-0.545v0.838H116V402.1h-0.619l-2.33-6.1L111,399.754,108.949,396l-2.33,6.1H106v0.838h3.244V402.1H108.7l0.675-1.9Z" transform="translate(-103 -392)"/>
</svg>
