<svg xmlns="http://www.w3.org/2000/svg" width="10" height="17" viewBox="0 0 10 17">
  <metadata><?xpacket begin="﻿" id="W5M0MpCehiHzreSzNTczkc9d"?>
<x:xmpmeta xmlns:x="adobe:ns:meta/" x:xmptk="Adobe XMP Core 5.6-c138 79.159824, 2016/09/14-01:09:01        ">
   <rdf:RDF xmlns:rdf="http://www.w3.org/1999/02/22-rdf-syntax-ns#">
      <rdf:Description rdf:about=""/>
   </rdf:RDF>
</x:xmpmeta>
                                                                                                    
                                                                                                    
                                                                                                    
                                                                                                    
                                                                                                    
                                                                                                    
                                                                                                    
                                                                                                    
                                                                                                    
                                                                                                    
                                                                                                    
                                                                                                    
                                                                                                    
                                                                                                    
                                                                                                    
                                                                                                    
                                                                                                    
                                                                                                    
                                                                                                    
                                                                                                    
                           
<?xpacket end="w"?></metadata>
<defs>
    <style>
      .cls-1 {
        fill: #f59282;
        fill-rule: evenodd;
      }
    </style>
  </defs>
  <path id="OK" class="cls-1" d="M1428.88,129.5c-0.55,0-1.66,1.133-3.88,1.133s-3.33-1.133-3.89-1.133a1.124,1.124,0,0,0-1.11,1.133,1.079,1.079,0,0,0,.56.985c0.65,0.392,2.77,1.282,2.77,1.282l-2.36,3.082a2.032,2.032,0,0,0-.41.885,1.119,1.119,0,0,0,1.11,1.134,1.019,1.019,0,0,0,.82-0.372s2.5-3.033,2.51-3.029,2.5,3.029,2.5,3.029a1.028,1.028,0,0,0,.83.372,1.125,1.125,0,0,0,1.11-1.134,2.013,2.013,0,0,0-.42-0.885l-2.36-3.082s2.12-.89,2.78-1.282a1.074,1.074,0,0,0,.55-0.985A1.118,1.118,0,0,0,1428.88,129.5ZM1425,121a3.968,3.968,0,1,0,3.88,3.966A3.928,3.928,0,0,0,1425,121Zm0,5.951a1.984,1.984,0,1,1,1.94-1.985A1.965,1.965,0,0,1,1425,126.949Z" transform="translate(-1420 -121)"/>
</svg>
