<svg id="Группа_43" data-name="Группа 43" xmlns="http://www.w3.org/2000/svg" width="28" height="28" viewBox="0 0 28 28">
  <circle id="Эллипс_658" data-name="Эллипс 658" fill="#fff" cx="14" cy="14" r="13"/>
  <circle id="Эллипс_701" data-name="Эллипс 701" fill="#f59282" cx="14" cy="14" r="14"/>
  <path id="Фигура_701" data-name="Фигура 701" fill="#fff" fill-rule="evenodd" d="M892.737,1079.71c0.587-.43-0.49-2.9-0.49-2.9a0.494,0.494,0,0,1,.134-0.43s2.3-1.35,2.079-2.05-2.872-.43-2.872-0.43a0.463,0.463,0,0,1-.353-0.26s-0.559-2.64-1.284-2.64-1.284,2.64-1.284,2.64a0.463,0.463,0,0,1-.353.26s-2.647-.27-2.872.43,2.078,2.05,2.078,2.05a0.492,0.492,0,0,1,.135.43s-1.077,2.47-.49,2.9,2.568-1.37,2.568-1.37a0.426,0.426,0,0,1,.436,0S892.151,1080.14,892.737,1079.71Zm6.261,5.2c0.069-.55-1.814-1.22-1.814-1.22a0.36,0.36,0,0,1-.157-0.29s0.454-1.98-.039-2.21-1.7,1.37-1.7,1.37a0.344,0.344,0,0,1-.321.07s-1.709-1.05-2.082-.65,0.762,2.07.762,2.07a0.364,0.364,0,0,1-.042.33s-1.509,1.33-1.247,1.81,2.174-.09,2.174-0.09a0.238,0.238,0,0,1,.165.03,0.291,0.291,0,0,1,.13.11s0.776,1.86,1.311,1.76,0.582-2.13.582-2.13a0.362,0.362,0,0,1,.224-0.24S898.93,1085.46,899,1084.91Zm-14.181-2.82a0.26,0.26,0,0,1-.209-0.06s-0.706-1.15-1.047-1.02-0.161,1.46-.161,1.46a0.219,0.219,0,0,1-.122.18s-1.291.33-1.279,0.7,1.321,0.61,1.321.61a0.22,0.22,0,0,1,.134.17s-0.092,1.35.256,1.45,0.978-1.09.978-1.09a0.192,0.192,0,0,1,.093-0.06,0.213,0.213,0,0,1,.112-0.01s1.234,0.5,1.437.2-0.717-1.28-.717-1.28a0.241,0.241,0,0,1-.008-0.22s0.855-1.04.632-1.33S884.817,1082.09,884.817,1082.09Z" transform="translate(-876 -1066)"/>
</svg>
