<svg xmlns="http://www.w3.org/2000/svg" width="20.063" height="20.063" viewBox="0 0 20.063 20.063">
  <defs>
    <style>
      .cls-1 {
        fill-rule: evenodd;
      }
    </style>
  </defs>
  <path id="Shape_33_copy_2" data-name="Shape 33 copy 2" class="cls-1" d="M266,244.037h0l0.013-.013,0.008-.007,0.007-.009L266.04,244h0c2.48-2.49,5.345-6.155,4.98-9.905-0.191-2.023-1.913-5.093-4.287-5.093a2.817,2.817,0,0,0-2,.829l-1.993,1.992a2.832,2.832,0,0,0,0,4l0.8,0.794a0.629,0.629,0,0,1,0,.886l-4.029,4.029a0.63,0.63,0,0,1-.886,0l-0.8-.794a2.828,2.828,0,0,0-4,0l-1.992,1.993a2.808,2.808,0,0,0-.829,2c0,2.374,3.07,4.1,5.092,4.288,3.751,0.364,7.416-2.5,9.905-4.981h0Zm3.027-9.755c0.289,3-2.427,6.373-4.454,8.348-2,2-5.279,4.682-8.286,4.392-0.961-.093-3.279-1.131-3.279-2.292a0.81,0.81,0,0,1,.242-0.584l1.992-1.995a0.826,0.826,0,0,1,1.168,0l0.883,0.882a2.509,2.509,0,0,0,3.544,0l4.206-4.2a2.512,2.512,0,0,0,0-3.545l-0.883-.883a0.823,0.823,0,0,1,0-1.167l1.993-1.993a0.813,0.813,0,0,1,.584-0.243c1.161,0,2.2,2.319,2.291,3.281h0Z" transform="translate(-251 -229)"/>
</svg>
