<svg id="Icon" xmlns="http://www.w3.org/2000/svg" width="18" height="22" viewBox="0 0 18 22">
  <defs>
    <style>
      .cls-1, .cls-2 {
        fill: none;
        stroke: #f59282;
        stroke-width: 2px;
      }

      .cls-1 {
        fill-rule: evenodd;
      }
    </style>
  </defs>
  <path id="Shape_98_copy_3" data-name="Shape 98 copy 3" class="cls-1" d="M807,732a0.753,0.753,0,0,1-.4-0.115A13.752,13.752,0,0,1,802.515,728a3.623,3.623,0,0,1-.229-3.232,2.928,2.928,0,0,1,2.234-1.752,2.392,2.392,0,0,1,.318-0.021,3.112,3.112,0,0,0,4.314,0,2.419,2.419,0,0,1,.319.021,2.928,2.928,0,0,1,2.233,1.752,3.623,3.623,0,0,1-.229,3.232,13.74,13.74,0,0,1-4.081,3.882A0.753,0.753,0,0,1,807,732Z" transform="translate(-798 -722)"/>
  <rect id="Shape_98_copy_3-2" data-name="Shape 98 copy 3" class="cls-2" x="1" y="7.938" width="16" height="13.062" rx="2" ry="2"/>
  <path id="Rectangle_2_copy_2" data-name="Rectangle 2 copy 2" class="cls-1" d="M806,731h2v10h-2V731Zm-6,4h13v2H800v-2Z" transform="translate(-798 -722)"/>
</svg>
