<svg xmlns="http://www.w3.org/2000/svg" xmlns:xlink="http://www.w3.org/1999/xlink" width="316" height="74" viewBox="0 0 316 74">
  <g id="Light1_2x" class="cls-1">
    <path id="Rectangle_16_copy_3" class="cls-2" d="M174,328V256h18v-2.015l6,3.015-6,3.015V258H176v68H488V258H202v-2H490v72H174Z" transform="translate(-174 -254)"/>
    <path id="logo_10_copy" class="cls-3" d="M448.017,302.149c-6.623,0-9.863-5.179-9.863-10.3s3.24-10.272,9.863-10.272c6.51,0,9.807,5.15,9.807,10.272S454.527,302.149,448.017,302.149Zm0-16.939c-4.007,0-6,3.347-6,6.695,0,3.319,1.99,6.638,6,6.638,3.952,0,5.969-3.319,5.969-6.638C453.986,288.557,451.969,285.21,448.017,285.21Zm-15.985-3.263h3.84v20.06h-3.84v-20.06Zm-6.122,20.06h-3.84V285.323h-4.083v-3.381h12.007v3.381H425.91v16.684Zm-14.116-21.052,9.055,21.052h-4.195l-4.86-11.615-4.861,11.615h-7.591l-3.706-8.212h-1.809v8.212h-3.843V281.942h6.953c3.249,0,6.42,1.637,6.42,5.923v0.007A5.444,5.444,0,0,1,399.5,293.3l3.586,7.888Zm-12.229,6.917v-0.007c0-1.707-1.537-2.3-2.8-2.3h-2.941v4.6h2.941C398.028,290.169,399.565,289.579,399.565,287.872Z" transform="translate(-174 -254)"/>
    <path id="Разработано_в" class="cls-4" d="M201.961,301.992v-7.566h4.773q3.948,0,5.459-1.644a6.057,6.057,0,0,0,.946-6.557,4.573,4.573,0,0,0-1.492-1.8,5.6,5.6,0,0,0-2.3-.869,16.9,16.9,0,0,0-2.831-.178H199.5v18.611h2.463Zm0-16.415h4.761a10.53,10.53,0,0,1,2.3.165,2.764,2.764,0,0,1,1.555,1.1,3.37,3.37,0,0,1,.59,2,3.164,3.164,0,0,1-1,2.5,5.106,5.106,0,0,1-3.39.888h-4.811v-6.652Zm23.5,16.415h2.387a5.071,5.071,0,0,1-.577-1.618,32.211,32.211,0,0,1-.146-4.031V293.3a12.873,12.873,0,0,0-.115-2.108,3.588,3.588,0,0,0-.711-1.555,3.7,3.7,0,0,0-1.587-1.022,8.113,8.113,0,0,0-2.805-.406,9.013,9.013,0,0,0-3.06.476,4.392,4.392,0,0,0-2.018,1.359,5.525,5.525,0,0,0-1,2.316l2.234,0.305a3.447,3.447,0,0,1,1.136-2,4.035,4.035,0,0,1,2.381-.565,3.824,3.824,0,0,1,2.6.774,2.522,2.522,0,0,1,.648,1.968c0,0.085,0,.284-0.013.6a20.939,20.939,0,0,1-4.075.787,16.409,16.409,0,0,0-2.031.342,5.557,5.557,0,0,0-1.644.749,3.74,3.74,0,0,0-1.181,1.314,3.685,3.685,0,0,0-.451,1.81,3.58,3.58,0,0,0,1.194,2.773,4.9,4.9,0,0,0,3.415,1.086,7.067,7.067,0,0,0,2.52-.444A8.52,8.52,0,0,0,225,300.329a4.849,4.849,0,0,0,.457,1.663h0Zm-0.647-5.929a5.532,5.532,0,0,1-.368,2.286,3.559,3.559,0,0,1-1.511,1.58,4.712,4.712,0,0,1-2.349.578,2.971,2.971,0,0,1-2.024-.61,2.019,2.019,0,0,1-.375-2.608,1.988,1.988,0,0,1,.9-0.743,8.637,8.637,0,0,1,1.994-.457,16.816,16.816,0,0,0,3.732-.863v0.837Zm9.584-.177a8.946,8.946,0,0,1,1.981.146,2.056,2.056,0,0,1,1.028.73,2.193,2.193,0,0,1-.285,3.04,2.867,2.867,0,0,1-1.924.654,3.205,3.205,0,0,1-2.05-.711,3.422,3.422,0,0,1-1.187-2.006l-2.146.457q0.737,4.1,5.345,4.1a5.513,5.513,0,0,0,3.7-1.13,3.692,3.692,0,0,0,1.32-2.945,3.593,3.593,0,0,0-2.031-3.39,2.969,2.969,0,0,0,1.6-2.628,3.777,3.777,0,0,0-1.225-2.818A5.179,5.179,0,0,0,230.232,292l2.171,0.355q0.774-2.271,2.7-2.272a2.3,2.3,0,0,1,1.594.552,1.891,1.891,0,0,1,.615,1.479,1.8,1.8,0,0,1-.469,1.27,1.86,1.86,0,0,1-1,.609,12.964,12.964,0,0,1-1.974.114v1.79c0.271-.008.444-0.012,0.52-0.012h0Zm11.223,11.273V300.6a4.653,4.653,0,0,0,1.491,1.218,4.3,4.3,0,0,0,2.051.483,5.544,5.544,0,0,0,2.977-.882,5.605,5.605,0,0,0,2.158-2.54,9.011,9.011,0,0,0,.743-3.726,9.165,9.165,0,0,0-.673-3.548,5.451,5.451,0,0,0-1.994-2.507,5.32,5.32,0,0,0-3.046-.889,4.563,4.563,0,0,0-2.247.514,5.133,5.133,0,0,0-1.664,1.543V288.51h-2.082v18.649h2.286Zm0.907-15.8A3.29,3.29,0,0,1,249.11,290a3.194,3.194,0,0,1,2.533,1.282,5.963,5.963,0,0,1,1.06,3.86,6.111,6.111,0,0,1-1.086,3.992,3.3,3.3,0,0,1-2.609,1.289,3.233,3.233,0,0,1-2.552-1.244,5.87,5.87,0,0,1-1.053-3.847A6.106,6.106,0,0,1,246.526,291.36Zm21.042,10.632h2.387a5.1,5.1,0,0,1-.578-1.618,32.42,32.42,0,0,1-.146-4.031V293.3a12.906,12.906,0,0,0-.114-2.108,3.588,3.588,0,0,0-.711-1.555,3.7,3.7,0,0,0-1.587-1.022,8.113,8.113,0,0,0-2.805-.406,9.013,9.013,0,0,0-3.06.476,4.4,4.4,0,0,0-2.019,1.359,5.537,5.537,0,0,0-1,2.316l2.234,0.305a3.447,3.447,0,0,1,1.136-2,4.035,4.035,0,0,1,2.381-.565,3.826,3.826,0,0,1,2.6.774,2.522,2.522,0,0,1,.648,1.968c0,0.085-.005.284-0.013,0.6a20.939,20.939,0,0,1-4.075.787,16.466,16.466,0,0,0-2.032.342,5.58,5.58,0,0,0-1.644.749,3.747,3.747,0,0,0-1.18,1.314,3.685,3.685,0,0,0-.451,1.81,3.582,3.582,0,0,0,1.193,2.773,4.9,4.9,0,0,0,3.415,1.086,7.067,7.067,0,0,0,2.52-.444,8.51,8.51,0,0,0,2.444-1.524,4.849,4.849,0,0,0,.457,1.663h0Zm-0.647-5.929a5.532,5.532,0,0,1-.368,2.286,3.564,3.564,0,0,1-1.511,1.58,4.717,4.717,0,0,1-2.349.578,2.976,2.976,0,0,1-2.025-.61,2.021,2.021,0,0,1-.374-2.608,1.983,1.983,0,0,1,.9-0.743,8.626,8.626,0,0,1,1.993-.457,16.813,16.813,0,0,0,3.733-.863v0.837Zm15.843-12.771a22.481,22.481,0,0,1-2.653.076q-3.759,0-5.567,1.854t-1.809,7.2a17.342,17.342,0,0,0,.711,5.967,7.09,7.09,0,0,0,2.044,2.812,6.89,6.89,0,0,0,7,.273,7.072,7.072,0,0,0,2.076-2.336,7.645,7.645,0,0,0,.876-3.872,6.846,6.846,0,0,0-1.739-4.932,5.815,5.815,0,0,0-4.393-1.822,5.277,5.277,0,0,0-2.6.641,5.9,5.9,0,0,0-2.018,1.923,9.687,9.687,0,0,1,.5-3.091,3.142,3.142,0,0,1,1.479-1.746,9.246,9.246,0,0,1,3.86-.546,17.036,17.036,0,0,0,2.862-.152,2.1,2.1,0,0,0,1.194-.685,3.494,3.494,0,0,0,.6-1.892l-2.019-.025A0.517,0.517,0,0,1,282.764,283.292ZM282,299.015a3.277,3.277,0,0,1-2.761,1.441,3.645,3.645,0,0,1-2.8-1.244,5.15,5.15,0,0,1-1.136-3.593,6.342,6.342,0,0,1,1.029-3.8,3.387,3.387,0,0,1,2.919-1.422,3.294,3.294,0,0,1,2.812,1.346,5.647,5.647,0,0,1,1,3.453A6.286,6.286,0,0,1,282,299.015Zm7.6,1.466a6.058,6.058,0,0,0,4.577,1.816,6.619,6.619,0,0,0,3.256-.825,5.528,5.528,0,0,0,2.272-2.317,8.913,8.913,0,0,0,.781-4.094,6.931,6.931,0,0,0-1.764-5.034,6.049,6.049,0,0,0-4.545-1.822,6.279,6.279,0,0,0-4.241,1.5q-2.082,1.8-2.082,5.548A7.248,7.248,0,0,0,289.6,300.481Zm1.733-9.1a3.768,3.768,0,0,1,5.668.006,5.57,5.57,0,0,1,1.137,3.79,5.879,5.879,0,0,1-1.13,3.948,3.762,3.762,0,0,1-5.675.006A7.209,7.209,0,0,1,291.333,291.379Zm10.549-.978h4.342v11.591H308.5V290.4h4.342V288.51H301.882V290.4Zm22.623,11.591h2.386a5.1,5.1,0,0,1-.577-1.618,32.211,32.211,0,0,1-.146-4.031V293.3a12.906,12.906,0,0,0-.114-2.108,3.611,3.611,0,0,0-.711-1.555,3.708,3.708,0,0,0-1.587-1.022,8.123,8.123,0,0,0-2.806-.406,9.017,9.017,0,0,0-3.06.476,4.392,4.392,0,0,0-2.018,1.359,5.525,5.525,0,0,0-1,2.316l2.234,0.305a3.448,3.448,0,0,1,1.137-2,4.031,4.031,0,0,1,2.38-.565,3.827,3.827,0,0,1,2.6.774,2.526,2.526,0,0,1,.647,1.968q0,0.127-.013.6a20.939,20.939,0,0,1-4.075.787,16.409,16.409,0,0,0-2.031.342,5.557,5.557,0,0,0-1.644.749,3.74,3.74,0,0,0-1.181,1.314,3.7,3.7,0,0,0-.451,1.81,3.58,3.58,0,0,0,1.194,2.773,4.9,4.9,0,0,0,3.415,1.086,7.067,7.067,0,0,0,2.52-.444,8.524,8.524,0,0,0,2.444-1.524,4.827,4.827,0,0,0,.457,1.663h0Zm-0.648-5.929a5.532,5.532,0,0,1-.368,2.286,3.559,3.559,0,0,1-1.511,1.58,4.71,4.71,0,0,1-2.348.578,2.972,2.972,0,0,1-2.025-.61,2.019,2.019,0,0,1-.375-2.608,1.985,1.985,0,0,1,.9-0.743,8.612,8.612,0,0,1,1.993-.457,16.787,16.787,0,0,0,3.732-.863v0.837Zm6.386,5.929h2.285v-5.979h6.335v5.979h2.285V288.51h-2.285v5.611h-6.335V288.51h-2.285v13.482ZM346,300.481a6.058,6.058,0,0,0,4.577,1.816,6.616,6.616,0,0,0,3.256-.825,5.53,5.53,0,0,0,2.273-2.317,8.927,8.927,0,0,0,.78-4.094,6.931,6.931,0,0,0-1.764-5.034,6.049,6.049,0,0,0-4.545-1.822,6.274,6.274,0,0,0-4.24,1.5q-2.082,1.8-2.082,5.548A7.248,7.248,0,0,0,346,300.481Zm1.733-9.1a3.769,3.769,0,0,1,5.669.006,5.575,5.575,0,0,1,1.136,3.79,5.879,5.879,0,0,1-1.13,3.948,3.762,3.762,0,0,1-5.675.006A7.209,7.209,0,0,1,347.736,291.379Zm20.109,10.613h6.081a5.993,5.993,0,0,0,3.618-.927,3.635,3.635,0,0,0,1.371-2.843,3.427,3.427,0,0,0-.629-2.063,3.143,3.143,0,0,0-1.58-1.187,3.269,3.269,0,0,0,1.2-1.2,3.4,3.4,0,0,0,.4-1.682,3.242,3.242,0,0,0-.679-2.069A3.486,3.486,0,0,0,376,288.833a9.581,9.581,0,0,0-2.888-.323h-5.268v13.482ZM370.13,290.4h2.513a5.727,5.727,0,0,1,2.584.419,1.553,1.553,0,0,1,.755,1.486,1.577,1.577,0,0,1-.431,1.111,2.093,2.093,0,0,1-.978.615,8.69,8.69,0,0,1-2.006.153H370.13V290.4Zm0,5.662H372.9a11.319,11.319,0,0,1,2.158.146,1.816,1.816,0,0,1,1.092.7,1.939,1.939,0,0,1,.419,1.2,1.762,1.762,0,0,1-.762,1.556,5.494,5.494,0,0,1-2.666.45H370.13v-4.05Z" transform="translate(-174 -254)"/>
  </g>
</svg>
