<?xml version="1.0" encoding="utf-8"?>
<!-- Generator: Adobe Illustrator 19.2.1, SVG Export Plug-In . SVG Version: 6.00 Build 0)  -->
<svg version="1.1" id="user" xmlns="http://www.w3.org/2000/svg" xmlns:xlink="http://www.w3.org/1999/xlink" x="0px" y="0px"
	 viewBox="0 0 15.9 16.9" style="enable-background:new 0 0 15.9 16.9;" xml:space="preserve">
<style type="text/css">
	.st0{fill:#F59282;}
</style>
<g>
	<path class="st0" d="M11.9,10.1c-0.5-0.2-1.1,0.1-1.2,0.7c-0.2,0.5,0.1,1.1,0.7,1.2c2.2,0.7,2.5,1.9,2.6,2.1c0,0.3-0.1,0.7-1,0.8
		l-9.9,0c-0.9-0.1-1-0.5-1-0.8C2,13.9,2.4,12.7,4.6,12c0.5-0.2,0.8-0.7,0.7-1.2C5.1,10.2,4.5,9.9,4,10.1c-3.7,1.1-4,3.7-4,3.9
		c0,1.7,1.1,2.7,2.9,2.9l10.1,0c1.8-0.1,2.9-1.2,2.9-3C15.9,13.8,15.6,11.2,11.9,10.1z"/>
	<path class="st0" d="M4.4,7.7c0.7,1.4,1.8,3.1,3.6,3.1c1.3,0,2.6-1.1,3.6-3.1c0.8-0.4,1.4-1.1,1.5-2c0.1-1-0.1-1.7-0.6-2.2
		c-0.2-0.2-0.3-0.3-0.5-0.4C11.6,1.3,9.9-0.1,8,0C7.7,0,7.5,0,7.3,0C5.6,0.1,4.2,1.5,4,3.1C3.8,3.2,3.6,3.3,3.4,3.5
		C2.9,4,2.7,4.8,2.8,5.7C2.9,6.6,3.6,7.3,4.4,7.7z M4.8,4.9c0.3,0,0.6-0.1,0.8-0.3C5.9,4.4,6,4.1,5.9,3.8c0-0.4,0.1-0.9,0.4-1.2
		C6.6,2.2,7,2,7.5,2c0.1,0,0.2,0,0.4,0C7.9,2,8,2,8,2c1-0.1,1.8,0.7,1.9,1.6c0,0.1,0,0.2,0,0.2c0,0.3,0,0.6,0.3,0.8
		C10.4,4.9,10.6,5,11,4.9c0,0,0.1,0.1,0,0.6c0,0.1-0.2,0.4-0.3,0.4c-0.3,0-0.6,0.3-0.8,0.6C9.1,8.2,8.2,8.8,7.9,8.8
		C7.7,8.8,7,8.8,6,6.5C5.9,6.2,5.6,6,5.2,5.9c-0.1,0-0.4-0.3-0.4-0.4C4.7,5,4.8,4.9,4.8,4.9z"/>
</g>
</svg>
